{
  "analysis": {
    "filter": {
      "completion_filter": {
        "token_chars": ["letter", "digit", "number"],
        "min_gram": 2,
        "max_gram": 10,
        "type": "ngram"
      }
    },
    "analyzer": {
      "completion_analyzer": {
        "type": "custom",
        "tokenizer": "whitespace",
        "filter": ["lowercase", "asciifolding", "completion_filter"]
      }
    }
  },
  "max_ngram_diff": 8
}
